{
  "name": "root",
  "total": 1813.8420976999998,
  "count": 1,
  "self": 630.8146466999947,
  "children": [
    {
      "name": "TrainerController.advance",
      "total": 1183.0274510000052,
      "count": 11311,
      "self": 11.011034800003472,
      "children": [
        {
          "name": "env_step",
          "total": 1172.0164162000017,
          "count": 11311,
          "self": 1157.362879000003,
          "children": [
            {
              "name": "SubprocessEnvManager._take_step",
              "total": 14.387926799992044,
              "count": 11311,
              "self": 1.5372441999972892,
              "children": [
                {
                  "name": "PPOPolicy.evaluate",
                  "total": 12.850682599994755,
                  "count": 11311,
                  "self": 12.850682599994755
                }
              ]
            },
            {
              "name": "workers",
              "total": 0.2656104000066932,
              "count": 11310,
              "self": 0.0,
              "children": [
                {
                  "name": "worker_root",
                  "total": 1770.2765158000086,
                  "count": 11310,
                  "is_parallel": true,
                  "self": 632.1610400000086,
                  "children": [
                    {
                      "name": "UnityEnvironment.step",
                      "total": 1138.1154758,
                      "count": 11186,
                      "is_parallel": true,
                      "self": 5.979182600020295,
                      "children": [
                        {
                          "name": "UnityEnvironment._generate_step_input",
                          "total": 1.346049499990439,
                          "count": 11186,
                          "is_parallel": true,
                          "self": 1.346049499990439
                        },
                        {
                          "name": "communicator.exchange",
                          "total": 1130.7902436999893,
                          "count": 11186,
                          "is_parallel": true,
                          "self": 1130.7902436999893
                        }
                      ]
                    }
                  ]
                }
              ]
            }
          ]
        }
      ]
    }
  ]
}