{
  "name": "root",
  "total": 15475.9447101,
  "count": 1,
  "self": 49.10633159993631,
  "children": [
    {
      "name": "TrainerController.advance",
      "total": 15426.838378500064,
      "count": 30380,
      "self": 40.58453330013435,
      "children": [
        {
          "name": "env_step",
          "total": 15386.25384519993,
          "count": 30380,
          "self": 15339.602848399907,
          "children": [
            {
              "name": "SubprocessEnvManager._take_step",
              "total": 45.977210700044395,
              "count": 30380,
              "self": 4.279599699962581,
              "children": [
                {
                  "name": "PPOPolicy.evaluate",
                  "total": 41.697611000081814,
                  "count": 30380,
                  "self": 41.697611000081814
                }
              ]
            },
            {
              "name": "workers",
              "total": 0.6737860999780274,
              "count": 30379,
              "self": 0.0,
              "children": [
                {
                  "name": "worker_root",
                  "total": 15437.323797600273,
                  "count": 30379,
                  "is_parallel": true,
                  "self": 292.4707927003583,
                  "children": [
                    {
                      "name": "UnityEnvironment.step",
                      "total": 15144.853004899915,
                      "count": 26472,
                      "is_parallel": true,
                      "self": 14.035413799818343,
                      "children": [
                        {
                          "name": "UnityEnvironment._generate_step_input",
                          "total": 3.330398200046151,
                          "count": 26472,
                          "is_parallel": true,
                          "self": 3.330398200046151
                        },
                        {
                          "name": "communicator.exchange",
                          "total": 15127.48719290005,
                          "count": 26472,
                          "is_parallel": true,
                          "self": 15127.48719290005
                        }
                      ]
                    }
                  ]
                }
              ]
            }
          ]
        }
      ]
    }
  ]
}