{
  "name": "root",
  "total": 9769.5295967,
  "count": 1,
  "self": 145.21044099973915,
  "children": [
    {
      "name": "TrainerController.advance",
      "total": 9624.319155700261,
      "count": 589349,
      "self": 594.6292134996984,
      "children": [
        {
          "name": "env_step",
          "total": 9029.689942200563,
          "count": 589349,
          "self": 8193.902657100549,
          "children": [
            {
              "name": "SubprocessEnvManager._take_step",
              "total": 821.1561487001688,
              "count": 589349,
              "self": 86.60974300023054,
              "children": [
                {
                  "name": "PPOPolicy.evaluate",
                  "total": 734.5464056999383,
                  "count": 589349,
                  "self": 734.5464056999383
                }
              ]
            },
            {
              "name": "workers",
              "total": 14.631136399845095,
              "count": 589348,
              "self": 0.0,
              "children": [
                {
                  "name": "worker_root",
                  "total": 9698.085571700089,
                  "count": 589348,
                  "is_parallel": true,
                  "self": 2369.0354236001313,
                  "children": [
                    {
                      "name": "UnityEnvironment.step",
                      "total": 7329.050148099957,
                      "count": 587441,
                      "is_parallel": true,
                      "self": 319.71955120122675,
                      "children": [
                        {
                          "name": "UnityEnvironment._generate_step_input",
                          "total": 76.39280199939034,
                          "count": 587441,
                          "is_parallel": true,
                          "self": 76.39280199939034
                        },
                        {
                          "name": "communicator.exchange",
                          "total": 6932.937794899341,
                          "count": 587441,
                          "is_parallel": true,
                          "self": 6932.937794899341
                        }
                      ]
                    }
                  ]
                }
              ]
            }
          ]
        }
      ]
    }
  ]
}