{
  "name": "root",
  "total": 1015.3525009,
  "count": 1,
  "self": 33.92278869999916,
  "children": [
    {
      "name": "TrainerController.advance",
      "total": 981.4297122000008,
      "count": 53157,
      "self": 49.334229500000674,
      "children": [
        {
          "name": "env_step",
          "total": 932.0954827000002,
          "count": 53157,
          "self": 864.3022929999971,
          "children": [
            {
              "name": "SubprocessEnvManager._take_step",
              "total": 66.57752699999752,
              "count": 53157,
              "self": 7.052595200004944,
              "children": [
                {
                  "name": "PPOPolicy.evaluate",
                  "total": 59.52493179999257,
                  "count": 53157,
                  "self": 59.52493179999257
                }
              ]
            },
            {
              "name": "workers",
              "total": 1.2156627000055025,
              "count": 53156,
              "self": 0.0,
              "children": [
                {
                  "name": "worker_root",
                  "total": 993.669394599993,
                  "count": 53156,
                  "is_parallel": true,
                  "self": 200.43046809998714,
                  "children": [
                    {
                      "name": "UnityEnvironment.step",
                      "total": 793.2389265000058,
                      "count": 52993,
                      "is_parallel": true,
                      "self": 26.588841499996875,
                      "children": [
                        {
                          "name": "UnityEnvironment._generate_step_input",
                          "total": 6.2943698000042785,
                          "count": 52993,
                          "is_parallel": true,
                          "self": 6.2943698000042785
                        },
                        {
                          "name": "communicator.exchange",
                          "total": 760.3557152000047,
                          "count": 52993,
                          "is_parallel": true,
                          "self": 760.3557152000047
                        }
                      ]
                    }
                  ]
                }
              ]
            }
          ]
        }
      ]
    }
  ]
}