%YAML 1.1
%TAG !u! tag:unity3d.com,2011:
--- !u!1001 &7395244487909899098
PrefabInstance:
  m_ObjectHideFlags: 0
  serializedVersion: 2
  m_Modification:
    m_TransformParent: {fileID: 0}
    m_Modifications:
    - target: {fileID: -4216859302048453862, guid: 47eb47cd50a7bcb4fa525c7e79b82e38,
        type: 3}
      propertyPath: m_LocalPosition.x
      value: -15.6
      objectReference: {fileID: 0}
    - target: {fileID: -4216859302048453862, guid: 47eb47cd50a7bcb4fa525c7e79b82e38,
        type: 3}
      propertyPath: m_LocalPosition.y
      value: -214.6335
      objectReference: {fileID: 0}
    - target: {fileID: -4216859302048453862, guid: 47eb47cd50a7bcb4fa525c7e79b82e38,
        type: 3}
      propertyPath: m_LocalPosition.z
      value: 43.95607
      objectReference: {fileID: 0}
    - target: {fileID: -4216859302048453862, guid: 47eb47cd50a7bcb4fa525c7e79b82e38,
        type: 3}
      propertyPath: m_LocalRotation.x
      value: 0
      objectReference: {fileID: 0}
    - target: {fileID: -4216859302048453862, guid: 47eb47cd50a7bcb4fa525c7e79b82e38,
        type: 3}
      propertyPath: m_LocalRotation.y
      value: 0
      objectReference: {fileID: 0}
    - target: {fileID: -4216859302048453862, guid: 47eb47cd50a7bcb4fa525c7e79b82e38,
        type: 3}
      propertyPath: m_LocalRotation.z
      value: 0
      objectReference: {fileID: 0}
    - target: {fileID: -4216859302048453862, guid: 47eb47cd50a7bcb4fa525c7e79b82e38,
        type: 3}
      propertyPath: m_LocalRotation.w
      value: 1
      objectReference: {fileID: 0}
    - target: {fileID: -4216859302048453862, guid: 47eb47cd50a7bcb4fa525c7e79b82e38,
        type: 3}
      propertyPath: m_RootOrder
      value: 0
      objectReference: {fileID: 0}
    - target: {fileID: -4216859302048453862, guid: 47eb47cd50a7bcb4fa525c7e79b82e38,
        type: 3}
      propertyPath: m_LocalEulerAnglesHint.x
      value: 0
      objectReference: {fileID: 0}
    - target: {fileID: -4216859302048453862, guid: 47eb47cd50a7bcb4fa525c7e79b82e38,
        type: 3}
      propertyPath: m_LocalEulerAnglesHint.y
      value: 0
      objectReference: {fileID: 0}
    - target: {fileID: -4216859302048453862, guid: 47eb47cd50a7bcb4fa525c7e79b82e38,
        type: 3}
      propertyPath: m_LocalEulerAnglesHint.z
      value: 0
      objectReference: {fileID: 0}
    - target: {fileID: -4216859302048453862, guid: 47eb47cd50a7bcb4fa525c7e79b82e38,
        type: 3}
      propertyPath: m_LocalScale.x
      value: 7
      objectReference: {fileID: 0}
    - target: {fileID: -4216859302048453862, guid: 47eb47cd50a7bcb4fa525c7e79b82e38,
        type: 3}
      propertyPath: m_LocalScale.y
      value: 7
      objectReference: {fileID: 0}
    - target: {fileID: -4216859302048453862, guid: 47eb47cd50a7bcb4fa525c7e79b82e38,
        type: 3}
      propertyPath: m_LocalScale.z
      value: 7
      objectReference: {fileID: 0}
    - target: {fileID: -927199367670048503, guid: 47eb47cd50a7bcb4fa525c7e79b82e38,
        type: 3}
      propertyPath: m_Name
      value: Hoop (1)
      objectReference: {fileID: 0}
    - target: {fileID: 2726396221703951952, guid: 47eb47cd50a7bcb4fa525c7e79b82e38,
        type: 3}
      propertyPath: m_Materials.Array.data[2]
      value: 
      objectReference: {fileID: 2100000, guid: e458bb6e66e4fe74397b3195daa1d204, type: 2}
    m_RemovedComponents: []
  m_SourcePrefab: {fileID: 100100000, guid: 47eb47cd50a7bcb4fa525c7e79b82e38, type: 3}
